<?xml version="1.0" encoding="utf-8"?>
<!DOCTYPE eagle SYSTEM "eagle.dtd">
<eagle version="7.1.0">
<drawing>
<settings>
<setting alwaysvectorfont="no"/>
<setting verticaltext="up"/>
</settings>
<grid distance="0.1" unitdist="inch" unit="inch" style="lines" multiple="1" display="no" altdistance="0.01" altunitdist="inch" altunit="inch"/>
<layers>
<layer number="1" name="Top" color="4" fill="1" visible="no" active="no"/>
<layer number="2" name="Route2" color="1" fill="3" visible="no" active="no"/>
<layer number="3" name="Route3" color="4" fill="3" visible="no" active="no"/>
<layer number="4" name="Route4" color="1" fill="4" visible="no" active="no"/>
<layer number="5" name="Route5" color="4" fill="4" visible="no" active="no"/>
<layer number="6" name="Route6" color="1" fill="8" visible="no" active="no"/>
<layer number="7" name="Route7" color="4" fill="8" visible="no" active="no"/>
<layer number="8" name="Route8" color="1" fill="2" visible="no" active="no"/>
<layer number="9" name="Route9" color="4" fill="2" visible="no" active="no"/>
<layer number="10" name="Route10" color="1" fill="7" visible="no" active="no"/>
<layer number="11" name="Route11" color="4" fill="7" visible="no" active="no"/>
<layer number="12" name="Route12" color="1" fill="5" visible="no" active="no"/>
<layer number="13" name="Route13" color="4" fill="5" visible="no" active="no"/>
<layer number="14" name="Route14" color="1" fill="6" visible="no" active="no"/>
<layer number="15" name="Route15" color="4" fill="6" visible="no" active="no"/>
<layer number="16" name="Bottom" color="1" fill="1" visible="no" active="no"/>
<layer number="17" name="Pads" color="2" fill="1" visible="no" active="no"/>
<layer number="18" name="Vias" color="2" fill="1" visible="no" active="no"/>
<layer number="19" name="Unrouted" color="6" fill="1" visible="no" active="no"/>
<layer number="20" name="Dimension" color="15" fill="1" visible="no" active="no"/>
<layer number="21" name="tPlace" color="7" fill="1" visible="no" active="no"/>
<layer number="22" name="bPlace" color="7" fill="1" visible="no" active="no"/>
<layer number="23" name="tOrigins" color="15" fill="1" visible="no" active="no"/>
<layer number="24" name="bOrigins" color="15" fill="1" visible="no" active="no"/>
<layer number="25" name="tNames" color="7" fill="1" visible="no" active="no"/>
<layer number="26" name="bNames" color="7" fill="1" visible="no" active="no"/>
<layer number="27" name="tValues" color="7" fill="1" visible="no" active="no"/>
<layer number="28" name="bValues" color="7" fill="1" visible="no" active="no"/>
<layer number="29" name="tStop" color="7" fill="3" visible="no" active="no"/>
<layer number="30" name="bStop" color="7" fill="6" visible="no" active="no"/>
<layer number="31" name="tCream" color="7" fill="4" visible="no" active="no"/>
<layer number="32" name="bCream" color="7" fill="5" visible="no" active="no"/>
<layer number="33" name="tFinish" color="6" fill="3" visible="no" active="no"/>
<layer number="34" name="bFinish" color="6" fill="6" visible="no" active="no"/>
<layer number="35" name="tGlue" color="7" fill="4" visible="no" active="no"/>
<layer number="36" name="bGlue" color="7" fill="5" visible="no" active="no"/>
<layer number="37" name="tTest" color="7" fill="1" visible="no" active="no"/>
<layer number="38" name="bTest" color="7" fill="1" visible="no" active="no"/>
<layer number="39" name="tKeepout" color="4" fill="11" visible="no" active="no"/>
<layer number="40" name="bKeepout" color="1" fill="11" visible="no" active="no"/>
<layer number="41" name="tRestrict" color="4" fill="10" visible="no" active="no"/>
<layer number="42" name="bRestrict" color="1" fill="10" visible="no" active="no"/>
<layer number="43" name="vRestrict" color="2" fill="10" visible="no" active="no"/>
<layer number="44" name="Drills" color="7" fill="1" visible="no" active="no"/>
<layer number="45" name="Holes" color="7" fill="1" visible="no" active="no"/>
<layer number="46" name="Milling" color="3" fill="1" visible="no" active="no"/>
<layer number="47" name="Measures" color="7" fill="1" visible="no" active="no"/>
<layer number="48" name="Document" color="7" fill="1" visible="no" active="no"/>
<layer number="49" name="Reference" color="7" fill="1" visible="no" active="no"/>
<layer number="50" name="dxf" color="7" fill="1" visible="no" active="no"/>
<layer number="51" name="tDocu" color="6" fill="1" visible="no" active="no"/>
<layer number="52" name="bDocu" color="7" fill="1" visible="no" active="no"/>
<layer number="53" name="tGND_GNDA" color="7" fill="9" visible="no" active="no"/>
<layer number="54" name="bGND_GNDA" color="1" fill="9" visible="no" active="no"/>
<layer number="56" name="wert" color="7" fill="1" visible="no" active="no"/>
<layer number="57" name="tCAD" color="7" fill="1" visible="no" active="no"/>
<layer number="59" name="tCarbon" color="7" fill="1" visible="no" active="no"/>
<layer number="60" name="bCarbon" color="7" fill="1" visible="no" active="no"/>
<layer number="90" name="Modules" color="5" fill="1" visible="yes" active="yes"/>
<layer number="91" name="Nets" color="2" fill="1" visible="yes" active="yes"/>
<layer number="92" name="Busses" color="1" fill="1" visible="yes" active="yes"/>
<layer number="93" name="Pins" color="2" fill="1" visible="no" active="yes"/>
<layer number="94" name="Symbols" color="4" fill="1" visible="yes" active="yes"/>
<layer number="95" name="Names" color="7" fill="1" visible="yes" active="yes"/>
<layer number="96" name="Values" color="7" fill="1" visible="yes" active="yes"/>
<layer number="97" name="Info" color="7" fill="1" visible="yes" active="yes"/>
<layer number="98" name="Guide" color="6" fill="1" visible="yes" active="yes"/>
<layer number="99" name="SpiceOrder" color="7" fill="1" visible="yes" active="yes"/>
<layer number="100" name="Muster" color="7" fill="1" visible="no" active="no"/>
<layer number="101" name="Patch_Top" color="12" fill="4" visible="yes" active="yes"/>
<layer number="102" name="Vscore" color="7" fill="1" visible="yes" active="yes"/>
<layer number="103" name="tMap" color="7" fill="1" visible="yes" active="yes"/>
<layer number="104" name="Name" color="16" fill="1" visible="yes" active="yes"/>
<layer number="105" name="tPlate" color="7" fill="1" visible="yes" active="yes"/>
<layer number="106" name="bPlate" color="7" fill="1" visible="yes" active="yes"/>
<layer number="107" name="Crop" color="7" fill="1" visible="yes" active="yes"/>
<layer number="108" name="tplace-old" color="10" fill="1" visible="yes" active="yes"/>
<layer number="109" name="ref-old" color="11" fill="1" visible="yes" active="yes"/>
<layer number="110" name="fp0" color="7" fill="1" visible="yes" active="yes"/>
<layer number="111" name="LPC17xx" color="7" fill="1" visible="yes" active="yes"/>
<layer number="112" name="tSilk" color="7" fill="1" visible="yes" active="yes"/>
<layer number="113" name="IDFDebug" color="7" fill="1" visible="yes" active="yes"/>
<layer number="116" name="Patch_BOT" color="9" fill="4" visible="yes" active="yes"/>
<layer number="118" name="Rect_Pads" color="7" fill="1" visible="yes" active="yes"/>
<layer number="121" name="_tsilk" color="7" fill="1" visible="yes" active="yes"/>
<layer number="122" name="_bsilk" color="7" fill="1" visible="yes" active="yes"/>
<layer number="123" name="tTestmark" color="7" fill="1" visible="yes" active="yes"/>
<layer number="124" name="bTestmark" color="7" fill="1" visible="yes" active="yes"/>
<layer number="125" name="_tNames" color="7" fill="1" visible="yes" active="yes"/>
<layer number="126" name="_bNames" color="7" fill="1" visible="yes" active="yes"/>
<layer number="127" name="_tValues" color="7" fill="1" visible="yes" active="yes"/>
<layer number="128" name="_bValues" color="7" fill="1" visible="yes" active="yes"/>
<layer number="129" name="Mask" color="7" fill="1" visible="yes" active="yes"/>
<layer number="131" name="tAdjust" color="7" fill="1" visible="yes" active="yes"/>
<layer number="132" name="bAdjust" color="7" fill="1" visible="yes" active="yes"/>
<layer number="144" name="Drill_legend" color="7" fill="1" visible="yes" active="yes"/>
<layer number="150" name="Notes" color="7" fill="1" visible="yes" active="yes"/>
<layer number="151" name="HeatSink" color="7" fill="1" visible="yes" active="yes"/>
<layer number="152" name="_bDocu" color="7" fill="1" visible="yes" active="yes"/>
<layer number="153" name="FabDoc1" color="7" fill="1" visible="yes" active="yes"/>
<layer number="154" name="FabDoc2" color="7" fill="1" visible="yes" active="yes"/>
<layer number="155" name="FabDoc3" color="7" fill="1" visible="yes" active="yes"/>
<layer number="199" name="Contour" color="7" fill="1" visible="yes" active="yes"/>
<layer number="200" name="200bmp" color="1" fill="10" visible="yes" active="yes"/>
<layer number="201" name="201bmp" color="2" fill="10" visible="yes" active="yes"/>
<layer number="202" name="202bmp" color="3" fill="10" visible="yes" active="yes"/>
<layer number="203" name="203bmp" color="4" fill="10" visible="yes" active="yes"/>
<layer number="204" name="204bmp" color="5" fill="10" visible="yes" active="yes"/>
<layer number="205" name="205bmp" color="6" fill="10" visible="yes" active="yes"/>
<layer number="206" name="206bmp" color="7" fill="10" visible="yes" active="yes"/>
<layer number="207" name="207bmp" color="8" fill="10" visible="yes" active="yes"/>
<layer number="208" name="208bmp" color="9" fill="10" visible="yes" active="yes"/>
<layer number="209" name="209bmp" color="7" fill="1" visible="yes" active="yes"/>
<layer number="210" name="210bmp" color="7" fill="1" visible="yes" active="yes"/>
<layer number="211" name="211bmp" color="7" fill="1" visible="yes" active="yes"/>
<layer number="212" name="212bmp" color="7" fill="1" visible="yes" active="yes"/>
<layer number="213" name="213bmp" color="7" fill="1" visible="yes" active="yes"/>
<layer number="214" name="214bmp" color="7" fill="1" visible="yes" active="yes"/>
<layer number="215" name="215bmp" color="7" fill="1" visible="yes" active="yes"/>
<layer number="216" name="216bmp" color="7" fill="1" visible="yes" active="yes"/>
<layer number="217" name="217bmp" color="18" fill="1" visible="no" active="no"/>
<layer number="218" name="218bmp" color="19" fill="1" visible="no" active="no"/>
<layer number="219" name="219bmp" color="20" fill="1" visible="no" active="no"/>
<layer number="220" name="220bmp" color="21" fill="1" visible="no" active="no"/>
<layer number="221" name="221bmp" color="22" fill="1" visible="no" active="no"/>
<layer number="222" name="222bmp" color="23" fill="1" visible="no" active="no"/>
<layer number="223" name="223bmp" color="24" fill="1" visible="no" active="no"/>
<layer number="224" name="224bmp" color="25" fill="1" visible="no" active="no"/>
<layer number="225" name="225bmp" color="7" fill="1" visible="yes" active="yes"/>
<layer number="226" name="226bmp" color="7" fill="1" visible="yes" active="yes"/>
<layer number="227" name="227bmp" color="7" fill="1" visible="yes" active="yes"/>
<layer number="228" name="228bmp" color="7" fill="1" visible="yes" active="yes"/>
<layer number="229" name="229bmp" color="7" fill="1" visible="yes" active="yes"/>
<layer number="230" name="230bmp" color="7" fill="1" visible="yes" active="yes"/>
<layer number="231" name="231bmp" color="7" fill="1" visible="yes" active="yes"/>
<layer number="248" name="Housing" color="7" fill="1" visible="yes" active="yes"/>
<layer number="249" name="Edge" color="7" fill="1" visible="yes" active="yes"/>
<layer number="250" name="Descript" color="3" fill="1" visible="no" active="no"/>
<layer number="251" name="SMDround" color="12" fill="11" visible="no" active="no"/>
<layer number="254" name="cooling" color="7" fill="1" visible="yes" active="yes"/>
<layer number="255" name="routoute" color="7" fill="1" visible="yes" active="yes"/>
</layers>
<schematic xreflabel="%F%N/%S.%C%R" xrefpart="/%S.%C%R">
<libraries>
<library name="st-microelectronics">
<description>&lt;b&gt;ST Microelectronics Devices&lt;/b&gt;&lt;p&gt;
Microcontrollers,  I2C components, linear devices&lt;p&gt;
http://www.st.com&lt;p&gt;
&lt;i&gt;Include st-microelectronics-2.lbr, st-microelectronics-3.lbr.&lt;p&gt;&lt;/i&gt;

&lt;author&gt;Created by librarian@cadsoft.de&lt;/author&gt;</description>
<packages>
<package name="DIL16">
<description>&lt;b&gt;Dual In Line Package&lt;/b&gt;</description>
<wire x1="10.16" y1="2.921" x2="-10.16" y2="2.921" width="0.1524" layer="21"/>
<wire x1="-10.16" y1="-2.921" x2="10.16" y2="-2.921" width="0.1524" layer="21"/>
<wire x1="10.16" y1="2.921" x2="10.16" y2="-2.921" width="0.1524" layer="21"/>
<wire x1="-10.16" y1="2.921" x2="-10.16" y2="1.016" width="0.1524" layer="21"/>
<wire x1="-10.16" y1="-2.921" x2="-10.16" y2="-1.016" width="0.1524" layer="21"/>
<wire x1="-10.16" y1="1.016" x2="-10.16" y2="-1.016" width="0.1524" layer="21" curve="-180"/>
<pad name="1" x="-8.89" y="-3.81" drill="0.8128" shape="long" rot="R90"/>
<pad name="2" x="-6.35" y="-3.81" drill="0.8128" shape="long" rot="R90"/>
<pad name="7" x="6.35" y="-3.81" drill="0.8128" shape="long" rot="R90"/>
<pad name="8" x="8.89" y="-3.81" drill="0.8128" shape="long" rot="R90"/>
<pad name="3" x="-3.81" y="-3.81" drill="0.8128" shape="long" rot="R90"/>
<pad name="4" x="-1.27" y="-3.81" drill="0.8128" shape="long" rot="R90"/>
<pad name="6" x="3.81" y="-3.81" drill="0.8128" shape="long" rot="R90"/>
<pad name="5" x="1.27" y="-3.81" drill="0.8128" shape="long" rot="R90"/>
<pad name="9" x="8.89" y="3.81" drill="0.8128" shape="long" rot="R90"/>
<pad name="10" x="6.35" y="3.81" drill="0.8128" shape="long" rot="R90"/>
<pad name="11" x="3.81" y="3.81" drill="0.8128" shape="long" rot="R90"/>
<pad name="12" x="1.27" y="3.81" drill="0.8128" shape="long" rot="R90"/>
<pad name="13" x="-1.27" y="3.81" drill="0.8128" shape="long" rot="R90"/>
<pad name="14" x="-3.81" y="3.81" drill="0.8128" shape="long" rot="R90"/>
<pad name="15" x="-6.35" y="3.81" drill="0.8128" shape="long" rot="R90"/>
<pad name="16" x="-8.89" y="3.81" drill="0.8128" shape="long" rot="R90"/>
<text x="-10.541" y="-2.921" size="1.27" layer="25" ratio="10" rot="R90">&gt;NAME</text>
<text x="-7.493" y="-0.635" size="1.27" layer="27" ratio="10">&gt;VALUE</text>
</package>
</packages>
<symbols>
<symbol name="L293D">
<wire x1="-10.16" y1="20.32" x2="-10.16" y2="-20.32" width="0.254" layer="94"/>
<wire x1="-10.16" y1="-20.32" x2="10.16" y2="-20.32" width="0.254" layer="94"/>
<wire x1="10.16" y1="-20.32" x2="10.16" y2="20.32" width="0.254" layer="94"/>
<wire x1="10.16" y1="20.32" x2="-10.16" y2="20.32" width="0.254" layer="94"/>
<text x="-10.16" y="21.336" size="1.778" layer="95">&gt;NAME</text>
<text x="-10.16" y="-22.86" size="1.778" layer="96">&gt;VALUE</text>
<pin name="1-2EN" x="-15.24" y="17.78" length="middle" direction="in"/>
<pin name="1A" x="-15.24" y="12.7" length="middle" direction="in"/>
<pin name="1Y" x="-15.24" y="7.62" length="middle" direction="out"/>
<pin name="GND1" x="-15.24" y="2.54" length="middle" direction="pwr"/>
<pin name="GND2" x="-15.24" y="-2.54" length="middle" direction="pwr"/>
<pin name="2Y" x="-15.24" y="-7.62" length="middle" direction="out"/>
<pin name="2A" x="-15.24" y="-12.7" length="middle" direction="in"/>
<pin name="VCC2" x="-15.24" y="-17.78" length="middle" direction="pwr"/>
<pin name="VCC1" x="15.24" y="17.78" length="middle" direction="pwr" rot="R180"/>
<pin name="4A" x="15.24" y="12.7" length="middle" direction="in" rot="R180"/>
<pin name="4Y" x="15.24" y="7.62" length="middle" direction="out" rot="R180"/>
<pin name="GND3" x="15.24" y="2.54" length="middle" direction="pwr" rot="R180"/>
<pin name="GND4" x="15.24" y="-2.54" length="middle" direction="pwr" rot="R180"/>
<pin name="3Y" x="15.24" y="-7.62" length="middle" direction="out" rot="R180"/>
<pin name="3A" x="15.24" y="-12.7" length="middle" direction="in" rot="R180"/>
<pin name="3-4EN" x="15.24" y="-17.78" length="middle" direction="in" rot="R180"/>
</symbol>
</symbols>
<devicesets>
<deviceset name="L293D" prefix="IC">
<description>&lt;b&gt;PUSH-PULL 4 CHANNEL DRIVER&lt;/b&gt;</description>
<gates>
<gate name="G$1" symbol="L293D" x="0" y="0"/>
</gates>
<devices>
<device name="" package="DIL16">
<connects>
<connect gate="G$1" pin="1-2EN" pad="1"/>
<connect gate="G$1" pin="1A" pad="2"/>
<connect gate="G$1" pin="1Y" pad="3"/>
<connect gate="G$1" pin="2A" pad="7"/>
<connect gate="G$1" pin="2Y" pad="6"/>
<connect gate="G$1" pin="3-4EN" pad="9"/>
<connect gate="G$1" pin="3A" pad="10"/>
<connect gate="G$1" pin="3Y" pad="11"/>
<connect gate="G$1" pin="4A" pad="15"/>
<connect gate="G$1" pin="4Y" pad="14"/>
<connect gate="G$1" pin="GND1" pad="4"/>
<connect gate="G$1" pin="GND2" pad="5"/>
<connect gate="G$1" pin="GND3" pad="13"/>
<connect gate="G$1" pin="GND4" pad="12"/>
<connect gate="G$1" pin="VCC1" pad="16"/>
<connect gate="G$1" pin="VCC2" pad="8"/>
</connects>
<technologies>
<technology name="">
<attribute name="MF" value="" constant="no"/>
<attribute name="MPN" value="L293D" constant="no"/>
<attribute name="OC_FARNELL" value="9589619" constant="no"/>
<attribute name="OC_NEWARK" value="56P8249" constant="no"/>
</technology>
</technologies>
</device>
</devices>
</deviceset>
</devicesets>
</library>
<library name="nano">
<packages>
<package name="PDIP-32">
<wire x1="-1.524" y1="1.524" x2="16.764" y2="1.524" width="0.127" layer="21"/>
<wire x1="16.764" y1="1.524" x2="16.764" y2="-42.164" width="0.127" layer="21"/>
<wire x1="16.764" y1="-42.164" x2="-1.524" y2="-42.164" width="0.127" layer="21"/>
<wire x1="-1.524" y1="-42.164" x2="-1.524" y2="1.524" width="0.127" layer="21"/>
<pad name="D1/TX" x="0" y="-2.54" drill="0.8" diameter="1.778" shape="square"/>
<pad name="D0/RX" x="0" y="-5.08" drill="0.8" diameter="1.778"/>
<pad name="RESET" x="0" y="-7.62" drill="0.8" diameter="1.778"/>
<pad name="GND" x="0" y="-10.16" drill="0.8" diameter="1.778"/>
<pad name="D2" x="0" y="-12.7" drill="0.8" diameter="1.778"/>
<pad name="D3" x="0" y="-15.24" drill="0.8" diameter="1.778"/>
<pad name="D4" x="0" y="-17.78" drill="0.8" diameter="1.778"/>
<pad name="D5" x="0" y="-20.32" drill="0.8" diameter="1.778"/>
<pad name="D6" x="0" y="-22.86" drill="0.8" diameter="1.778"/>
<pad name="D7" x="0" y="-25.4" drill="0.8" diameter="1.778"/>
<pad name="D8" x="0" y="-27.94" drill="0.8" diameter="1.778"/>
<pad name="D9" x="0" y="-30.48" drill="0.8" diameter="1.778"/>
<pad name="D10" x="0" y="-33.02" drill="0.8" diameter="1.778"/>
<pad name="D11" x="0" y="-35.56" drill="0.8" diameter="1.778"/>
<pad name="D12" x="0" y="-38.1" drill="0.8" diameter="1.778"/>
<pad name="VIN" x="15.24" y="-2.54" drill="0.8" diameter="1.778"/>
<pad name="GND1" x="15.24" y="-5.08" drill="0.8" diameter="1.778"/>
<pad name="RESET1" x="15.24" y="-7.62" drill="0.8" diameter="1.778"/>
<pad name="+5V" x="15.24" y="-10.16" drill="0.8" diameter="1.778"/>
<pad name="A0" x="15.24" y="-12.7" drill="0.8" diameter="1.778"/>
<pad name="A1" x="15.24" y="-15.24" drill="0.8" diameter="1.778"/>
<pad name="A2" x="15.24" y="-17.78" drill="0.8" diameter="1.778"/>
<pad name="A3" x="15.24" y="-20.32" drill="0.8" diameter="1.778"/>
<pad name="A4" x="15.24" y="-22.86" drill="0.8" diameter="1.778"/>
<pad name="A5" x="15.24" y="-25.4" drill="0.8" diameter="1.778"/>
<pad name="A6" x="15.24" y="-27.94" drill="0.8" diameter="1.778"/>
<pad name="A7" x="15.24" y="-30.48" drill="0.8" diameter="1.778"/>
<pad name="AREF" x="15.24" y="-33.02" drill="0.8" diameter="1.778"/>
<pad name="3V3" x="15.24" y="-35.56" drill="0.8" diameter="1.778"/>
<pad name="D13" x="15.24" y="-38.1" drill="0.8" diameter="1.778"/>
<text x="-0.762" y="2.286" size="1.27" layer="25">Name</text>
<text x="-1.27" y="-44.704" size="1.27" layer="25">Value</text>
<hole x="0" y="0" drill="1.778"/>
<hole x="0" y="-40.64" drill="1.778"/>
<hole x="15.24" y="-40.64" drill="1.778"/>
<hole x="15.24" y="0" drill="1.778"/>
</package>
</packages>
<symbols>
<symbol name="ARDUINONANO">
<wire x1="0" y1="-76.2" x2="0" y2="0" width="0.254" layer="94"/>
<wire x1="0" y1="0" x2="20.32" y2="0" width="0.254" layer="94"/>
<wire x1="20.32" y1="0" x2="20.32" y2="-76.2" width="0.254" layer="94"/>
<wire x1="20.32" y1="-76.2" x2="0" y2="-76.2" width="0.254" layer="94"/>
<pin name="D1/TX" x="-5.08" y="-2.54" visible="pin" length="middle"/>
<pin name="D0/RX" x="-5.08" y="-7.62" visible="pin" length="middle"/>
<pin name="RESET" x="-5.08" y="-12.7" visible="pin" length="middle"/>
<pin name="GND" x="-5.08" y="-17.78" visible="pin" length="middle"/>
<pin name="D2" x="-5.08" y="-22.86" visible="pin" length="middle"/>
<pin name="D3" x="-5.08" y="-27.94" visible="pin" length="middle"/>
<pin name="D4" x="-5.08" y="-33.02" visible="pin" length="middle"/>
<pin name="D5" x="-5.08" y="-38.1" visible="pin" length="middle"/>
<pin name="D6" x="-5.08" y="-43.18" visible="pin" length="middle"/>
<pin name="D7" x="-5.08" y="-48.26" visible="pin" length="middle"/>
<pin name="D8" x="-5.08" y="-53.34" visible="pin" length="middle"/>
<pin name="D9" x="-5.08" y="-58.42" visible="pin" length="middle"/>
<pin name="D10" x="-5.08" y="-63.5" visible="pin" length="middle"/>
<pin name="D11" x="-5.08" y="-68.58" visible="pin" length="middle"/>
<pin name="D12" x="-5.08" y="-73.66" visible="pin" length="middle"/>
<pin name="VIN" x="25.4" y="-2.54" visible="pin" length="middle" rot="R180"/>
<pin name="GND1" x="25.4" y="-7.62" visible="pin" length="middle" rot="R180"/>
<pin name="RESET1" x="25.4" y="-12.7" visible="pin" length="middle" rot="R180"/>
<pin name="+5V" x="25.4" y="-17.78" visible="pin" length="middle" rot="R180"/>
<pin name="A0" x="25.4" y="-22.86" visible="pin" length="middle" rot="R180"/>
<pin name="A1" x="25.4" y="-27.94" visible="pin" length="middle" rot="R180"/>
<pin name="A2" x="25.4" y="-33.02" visible="pin" length="middle" rot="R180"/>
<pin name="A3" x="25.4" y="-38.1" visible="pin" length="middle" rot="R180"/>
<pin name="A4" x="25.4" y="-43.18" visible="pin" length="middle" rot="R180"/>
<pin name="A5" x="25.4" y="-48.26" visible="pin" length="middle" rot="R180"/>
<pin name="A6" x="25.4" y="-53.34" visible="pin" length="middle" rot="R180"/>
<pin name="A7" x="25.4" y="-58.42" visible="pin" length="middle" rot="R180"/>
<pin name="AREF" x="25.4" y="-63.5" visible="pin" length="middle" rot="R180"/>
<pin name="3V3" x="25.4" y="-68.58" visible="pin" length="middle" rot="R180"/>
<pin name="D13" x="25.4" y="-73.66" visible="pin" length="middle" rot="R180"/>
</symbol>
</symbols>
<devicesets>
<deviceset name="ARDUINONANO">
<gates>
<gate name="G$1" symbol="ARDUINONANO" x="-10.16" y="38.1"/>
</gates>
<devices>
<device name="" package="PDIP-32">
<connects>
<connect gate="G$1" pin="+5V" pad="+5V"/>
<connect gate="G$1" pin="3V3" pad="3V3"/>
<connect gate="G$1" pin="A0" pad="A0"/>
<connect gate="G$1" pin="A1" pad="A1"/>
<connect gate="G$1" pin="A2" pad="A2"/>
<connect gate="G$1" pin="A3" pad="A3"/>
<connect gate="G$1" pin="A4" pad="A4"/>
<connect gate="G$1" pin="A5" pad="A5"/>
<connect gate="G$1" pin="A6" pad="A6"/>
<connect gate="G$1" pin="A7" pad="A7"/>
<connect gate="G$1" pin="AREF" pad="AREF"/>
<connect gate="G$1" pin="D0/RX" pad="D0/RX"/>
<connect gate="G$1" pin="D1/TX" pad="D1/TX"/>
<connect gate="G$1" pin="D10" pad="D10"/>
<connect gate="G$1" pin="D11" pad="D11"/>
<connect gate="G$1" pin="D12" pad="D12"/>
<connect gate="G$1" pin="D13" pad="D13"/>
<connect gate="G$1" pin="D2" pad="D2"/>
<connect gate="G$1" pin="D3" pad="D3"/>
<connect gate="G$1" pin="D4" pad="D4"/>
<connect gate="G$1" pin="D5" pad="D5"/>
<connect gate="G$1" pin="D6" pad="D6"/>
<connect gate="G$1" pin="D7" pad="D7"/>
<connect gate="G$1" pin="D8" pad="D8"/>
<connect gate="G$1" pin="D9" pad="D9"/>
<connect gate="G$1" pin="GND" pad="GND"/>
<connect gate="G$1" pin="GND1" pad="GND1"/>
<connect gate="G$1" pin="RESET" pad="RESET"/>
<connect gate="G$1" pin="RESET1" pad="RESET1"/>
<connect gate="G$1" pin="VIN" pad="VIN"/>
</connects>
<technologies>
<technology name=""/>
</technologies>
</device>
</devices>
</deviceset>
</devicesets>
</library>
<library name="sensor">
<description>&lt;h3&gt;SparkFun Electronics' preferred foot prints&lt;/h3&gt;
In this library you'll find sensors- accelerometers, gyros, compasses, magnetometers, light sensors, imagers, temp sensors, etc.&lt;br&gt;&lt;br&gt;
We've spent an enormous amount of time creating and checking these footprints and parts, but it is the end user's responsibility to ensure correctness and suitablity for a given componet or application. If you enjoy using this library, please buy one of our products at www.sparkfun.com.
&lt;br&gt;&lt;br&gt;
&lt;b&gt;Licensing:&lt;/b&gt; Creative Commons ShareAlike 4.0 International - https://creativecommons.org/licenses/by-sa/4.0/ 
&lt;br&gt;&lt;br&gt;
You are welcome to use this library for commercial purposes. For attribution, we ask that when you begin to sell your device using our footprint, you email us with a link to the product being sold. We want bragging rights that we helped (in a very small part) to create your 8th world wonder. We would like the opportunity to feature your device on our homepage.</description>
<packages>
<package name="QRD1114">
<wire x1="-2.159" y1="3.048" x2="2.2352" y2="3.048" width="0.2032" layer="21"/>
<wire x1="2.2352" y1="3.048" x2="2.2352" y2="-3.048" width="0.2032" layer="21"/>
<wire x1="-2.159" y1="3.048" x2="-2.159" y2="-3.048" width="0.2032" layer="21"/>
<wire x1="-2.159" y1="-3.048" x2="2.2352" y2="-3.048" width="0.2032" layer="21"/>
<circle x="-1.524" y="2.413" radius="0.3592" width="0.254" layer="21"/>
<pad name="1" x="-1.0668" y="1.27" drill="0.9"/>
<pad name="2" x="-1.0668" y="-1.27" drill="0.9"/>
<pad name="3" x="1.0414" y="-1.27" drill="0.9"/>
<pad name="4" x="1.0414" y="1.27" drill="0.9"/>
<text x="-2.1336" y="3.2258" size="0.8128" layer="25">&gt;NAME</text>
<text x="-2.2098" y="-4.1402" size="0.8128" layer="27">&gt;Value</text>
</package>
</packages>
<symbols>
<symbol name="QRD1114">
<wire x1="-8.89" y1="5.08" x2="-8.89" y2="-5.08" width="0.254" layer="94"/>
<wire x1="-8.89" y1="-5.08" x2="-5.08" y2="-5.08" width="0.254" layer="94"/>
<wire x1="-5.08" y1="-5.08" x2="2.54" y2="-5.08" width="0.254" layer="94"/>
<wire x1="2.54" y1="-5.08" x2="6.35" y2="-5.08" width="0.254" layer="94"/>
<wire x1="6.35" y1="-5.08" x2="6.35" y2="5.08" width="0.254" layer="94"/>
<wire x1="6.35" y1="5.08" x2="2.54" y2="5.08" width="0.254" layer="94"/>
<wire x1="2.54" y1="5.08" x2="-5.08" y2="5.08" width="0.254" layer="94"/>
<wire x1="-5.08" y1="5.08" x2="-8.89" y2="5.08" width="0.254" layer="94"/>
<wire x1="-5.08" y1="5.08" x2="-5.08" y2="-0.635" width="0.254" layer="94"/>
<wire x1="-5.08" y1="-0.635" x2="-5.08" y2="-5.08" width="0.254" layer="94"/>
<wire x1="0" y1="3.175" x2="0" y2="0.635" width="0.254" layer="94"/>
<wire x1="0" y1="0.635" x2="0" y2="-0.635" width="0.254" layer="94"/>
<wire x1="0" y1="-0.635" x2="0" y2="-3.175" width="0.254" layer="94"/>
<wire x1="2.54" y1="5.08" x2="2.54" y2="3.175" width="0.254" layer="94"/>
<wire x1="2.54" y1="3.175" x2="0" y2="0.635" width="0.254" layer="94"/>
<wire x1="0" y1="-0.635" x2="2.54" y2="-3.175" width="0.254" layer="94"/>
<wire x1="2.54" y1="-3.175" x2="2.54" y2="-5.08" width="0.254" layer="94"/>
<wire x1="-6.35" y1="-0.635" x2="-3.81" y2="-0.635" width="0.254" layer="94"/>
<text x="5.08" y="-7.62" size="1.778" layer="96">&gt;Value</text>
<text x="-11.43" y="6.35" size="1.778" layer="95">&gt;Name</text>
<text x="-7.62" y="2.54" size="1.778" layer="94">A</text>
<text x="-7.62" y="-3.81" size="1.778" layer="94">K</text>
<text x="3.81" y="2.54" size="1.778" layer="94">C</text>
<text x="3.81" y="-3.81" size="1.778" layer="94">E</text>
<pin name="C" x="2.54" y="-7.62" visible="pad" length="short" rot="R90"/>
<pin name="E" x="2.54" y="7.62" visible="pad" length="short" rot="R270"/>
<pin name="K" x="-5.08" y="-7.62" visible="pad" length="short" rot="R90"/>
<pin name="A" x="-5.08" y="7.62" visible="pad" length="short" rot="R270"/>
<polygon width="0.254" layer="94">
<vertex x="-5.08" y="-0.635"/>
<vertex x="-6.35" y="1.27"/>
<vertex x="-3.81" y="1.27"/>
</polygon>
<polygon width="0.254" layer="94">
<vertex x="2.54" y="-3.175"/>
<vertex x="1.905" y="-1.905"/>
<vertex x="1.27" y="-2.54"/>
</polygon>
</symbol>
</symbols>
<devicesets>
<deviceset name="QRD1114">
<description>Reflective object sensor</description>
<gates>
<gate name="G$1" symbol="QRD1114" x="-5.08" y="0"/>
</gates>
<devices>
<device name="" package="QRD1114">
<connects>
<connect gate="G$1" pin="A" pad="3"/>
<connect gate="G$1" pin="C" pad="2"/>
<connect gate="G$1" pin="E" pad="1"/>
<connect gate="G$1" pin="K" pad="4"/>
</connects>
<technologies>
<technology name=""/>
</technologies>
</device>
</devices>
</deviceset>
</devicesets>
</library>
<library name="docu-dummy">
<description>Dummy symbols</description>
<packages>
</packages>
<symbols>
<symbol name="RESISTOR">
<wire x1="-2.54" y1="-0.889" x2="2.54" y2="-0.889" width="0.254" layer="94"/>
<wire x1="2.54" y1="0.889" x2="-2.54" y2="0.889" width="0.254" layer="94"/>
<wire x1="2.54" y1="-0.889" x2="2.54" y2="0" width="0.254" layer="94"/>
<wire x1="2.54" y1="0" x2="2.54" y2="0.889" width="0.254" layer="94"/>
<wire x1="-2.54" y1="-0.889" x2="-2.54" y2="0" width="0.254" layer="94"/>
<wire x1="-2.54" y1="0" x2="-2.54" y2="0.889" width="0.254" layer="94"/>
<wire x1="-5.08" y1="0" x2="-2.54" y2="0" width="0.1524" layer="94"/>
<wire x1="2.54" y1="0" x2="5.08" y2="0" width="0.1524" layer="94"/>
</symbol>
<symbol name="CAPACITOR">
<wire x1="0" y1="-5.08" x2="0" y2="-2.032" width="0.1524" layer="94"/>
<wire x1="0" y1="-0.508" x2="0" y2="2.54" width="0.1524" layer="94"/>
<rectangle x1="-2.032" y1="-2.032" x2="2.032" y2="-1.524" layer="94"/>
<rectangle x1="-2.032" y1="-1.016" x2="2.032" y2="-0.508" layer="94"/>
</symbol>
</symbols>
<devicesets>
<deviceset name="R" prefix="R">
<description>&lt;b&gt;RESISTOR&lt;/b&gt;</description>
<gates>
<gate name="G$1" symbol="RESISTOR" x="0" y="0"/>
</gates>
<devices>
<device name="">
<technologies>
<technology name=""/>
</technologies>
</device>
</devices>
</deviceset>
<deviceset name="C" prefix="C">
<description>&lt;b&gt;CAPACITOR&lt;/b&gt;</description>
<gates>
<gate name="G$1" symbol="CAPACITOR" x="0" y="0"/>
</gates>
<devices>
<device name="">
<technologies>
<technology name=""/>
</technologies>
</device>
</devices>
</deviceset>
</devicesets>
</library>
</libraries>
<attributes>
</attributes>
<variantdefs>
</variantdefs>
<classes>
<class number="0" name="default" width="0" drill="0">
</class>
</classes>
<parts>
<part name="IC1" library="st-microelectronics" deviceset="L293D" device=""/>
<part name="U$1" library="nano" deviceset="ARDUINONANO" device=""/>
<part name="U$2" library="sensor" deviceset="QRD1114" device=""/>
<part name="U$3" library="sensor" deviceset="QRD1114" device=""/>
<part name="U$4" library="sensor" deviceset="QRD1114" device=""/>
<part name="U$5" library="sensor" deviceset="QRD1114" device=""/>
<part name="U$6" library="sensor" deviceset="QRD1114" device=""/>
<part name="U$7" library="sensor" deviceset="QRD1114" device=""/>
<part name="R1" library="docu-dummy" deviceset="R" device=""/>
<part name="R2" library="docu-dummy" deviceset="R" device=""/>
<part name="R3" library="docu-dummy" deviceset="R" device=""/>
<part name="R4" library="docu-dummy" deviceset="R" device=""/>
<part name="R5" library="docu-dummy" deviceset="R" device=""/>
<part name="R6" library="docu-dummy" deviceset="R" device=""/>
<part name="R7" library="docu-dummy" deviceset="R" device=""/>
<part name="R8" library="docu-dummy" deviceset="R" device=""/>
<part name="R9" library="docu-dummy" deviceset="R" device=""/>
<part name="R10" library="docu-dummy" deviceset="R" device=""/>
<part name="R11" library="docu-dummy" deviceset="R" device=""/>
<part name="R12" library="docu-dummy" deviceset="R" device=""/>
<part name="C1" library="docu-dummy" deviceset="C" device=""/>
<part name="C2" library="docu-dummy" deviceset="C" device=""/>
<part name="C3" library="docu-dummy" deviceset="C" device=""/>
<part name="C4" library="docu-dummy" deviceset="C" device=""/>
<part name="C5" library="docu-dummy" deviceset="C" device=""/>
<part name="C6" library="docu-dummy" deviceset="C" device=""/>
</parts>
<sheets>
<sheet>
<plain>
</plain>
<instances>
<instance part="IC1" gate="G$1" x="63.5" y="55.88"/>
<instance part="U$1" gate="G$1" x="-2.54" y="86.36"/>
<instance part="U$2" gate="G$1" x="124.46" y="91.44"/>
<instance part="U$3" gate="G$1" x="124.46" y="68.58"/>
<instance part="U$4" gate="G$1" x="124.46" y="43.18"/>
<instance part="U$5" gate="G$1" x="127" y="22.86"/>
<instance part="U$6" gate="G$1" x="170.18" y="55.88"/>
<instance part="U$7" gate="G$1" x="162.56" y="25.4"/>
<instance part="R1" gate="G$1" x="38.1" y="109.22"/>
<instance part="R2" gate="G$1" x="38.1" y="104.14"/>
<instance part="R3" gate="G$1" x="38.1" y="93.98"/>
<instance part="R4" gate="G$1" x="38.1" y="88.9"/>
<instance part="R5" gate="G$1" x="38.1" y="76.2"/>
<instance part="R6" gate="G$1" x="38.1" y="71.12"/>
<instance part="R7" gate="G$1" x="38.1" y="55.88"/>
<instance part="R8" gate="G$1" x="35.56" y="45.72"/>
<instance part="R9" gate="G$1" x="38.1" y="35.56"/>
<instance part="R10" gate="G$1" x="38.1" y="30.48"/>
<instance part="R11" gate="G$1" x="38.1" y="20.32"/>
<instance part="R12" gate="G$1" x="38.1" y="15.24"/>
<instance part="C1" gate="G$1" x="96.52" y="101.6"/>
<instance part="C2" gate="G$1" x="96.52" y="91.44"/>
<instance part="C3" gate="G$1" x="96.52" y="71.12"/>
<instance part="C4" gate="G$1" x="96.52" y="53.34"/>
<instance part="C5" gate="G$1" x="96.52" y="38.1"/>
<instance part="C6" gate="G$1" x="96.52" y="25.4"/>
</instances>
<busses>
</busses>
<nets>
</nets>
</sheet>
</sheets>
</schematic>
</drawing>
</eagle>
